7000,-1.09e-05,-6e-07
7001,-8.5e-06,-7e-07
7002,-3.4e-06,-8e-07
7003,4.4e-06,-1e-06
7004,1.13e-05,-1.2e-06
7005,1.6e-05,-1.3e-06
7006,1.8e-05,-1.4e-06
7007,1.83e-05,-1.5e-06
7008,1.84e-05,-1.5e-06
7009,1.85e-05,-1.5e-06
7010,1.86e-05,-1.5e-06
7011,1.88e-05,-1.5e-06
7012,1.89e-05,-1.6e-06
7013,1.9e-05,-1.6e-06
7014,1.92e-05,-1.6e-06
7015,1.93e-05,-1.6e-06
7016,1.95e-05,-1.6e-06
7017,1.96e-05,-1.6e-06
7018,1.98e-05,-1.6e-06
7019,1.99e-05,-1.7e-06
7020,2e-05,-1.7e-06
7021,2.02e-05,-1.7e-06
7022,2.03e-05,-1.7e-06
7023,2.05e-05,-1.7e-06
7024,2.06e-05,-1.8e-06
7025,2.07e-05,-1.8e-06
7026,2.09e-05,-1.9e-06
7027,2.11e-05,-1.9e-06
7028,2.13e-05,-1.9e-06
7029,2.14e-05,-1.9e-06
7030,2.16e-05,-2e-06
7031,2.18e-05,-2e-06
7032,2.19e-05,-2e-06
7033,2.22e-05,-2e-06
7034,2.23e-05,-2e-06
7035,2.25e-05,-2.1e-06
7036,2.27e-05,-2.1e-06
7037,2.29e-05,-2.2e-06
7038,2.31e-05,-2.2e-06
7039,2.33e-05,-2.3e-06
7040,2.35e-05,-2.3e-06
7041,2.37e-05,-2.3e-06
7042,2.39e-05,-2.4e-06
7043,2.41e-05,-2.4e-06
7044,2.44e-05,-2.4e-06
7045,2.46e-05,-2.5e-06
7046,2.48e-05,-2.5e-06
7047,2.51e-05,-2.5e-06
7048,2.53e-05,-2.6e-06
7049,2.56e-05,-2.7e-06
7050,2.58e-05,-2.7e-06
7051,2.61e-05,-2.8e-06
7052,2.63e-05,-2.8e-06
7053,2.66e-05,-2.9e-06
7054,2.69e-05,-2.9e-06
7055,2.71e-05,-3e-06
7056,2.74e-05,-3.1e-06
7057,2.77e-05,-3.1e-06
7058,2.8e-05,-3.2e-06
7059,2.83e-05,-3.3e-06
7060,2.87e-05,-3.3e-06
7061,2.9e-05,-3.4e-06
7062,2.93e-05,-3.4e-06
7063,2.96e-05,-3.5e-06
7064,3e-05,-3.6e-06
7065,3.03e-05,-3.7e-06
7066,3.07e-05,-3.7e-06
7067,3.11e-05,-3.8e-06
7068,3.15e-05,-4e-06
7069,3.19e-05,-4e-06
7070,3.22e-05,-4.1e-06
7071,3.26e-05,-4.2e-06
7072,3.31e-05,-4.4e-06
7073,3.36e-05,-4.5e-06
7074,3.39e-05,-4.6e-06
7075,3.45e-05,-4.8e-06
7076,3.49e-05,-4.9e-06
7077,3.54e-05,-5e-06
7078,3.59e-05,-5.1e-06
7079,3.65e-05,-5.3e-06
7080,3.71e-05,-5.4e-06
7081,3.76e-05,-5.6e-06
7082,3.81e-05,-5.8e-06
7083,3.88e-05,-5.9e-06
7084,3.94e-05,-6.1e-06
7085,4e-05,-6.3e-06
7086,4.06e-05,-6.5e-06
7087,4.13e-05,-6.7e-06
7088,4.2e-05,-7e-06
7089,4.27e-05,-7.2e-06
7090,4.34e-05,-7.5e-06
7091,4.42e-05,-7.8e-06
7092,4.5e-05,-8.1e-06
7093,4.58e-05,-8.4e-06
7094,4.67e-05,-8.8e-06
7095,4.76e-05,-9.1e-06
7096,4.85e-05,-9.5e-06
7097,4.95e-05,-9.9e-06
7098,5.06e-05,-1.03e-05
7099,5.16e-05,-1.08e-05
7100,5.27e-05,-1.13e-05
7101,5.38e-05,-1.18e-05
7102,5.5e-05,-1.23e-05
7103,5.64e-05,-1.3e-05
7104,5.76e-05,-1.36e-05
7105,5.9e-05,-1.43e-05
7106,6.04e-05,-1.51e-05
7107,6.19e-05,-1.59e-05
7108,6.34e-05,-1.67e-05
7109,6.51e-05,-1.77e-05
7110,6.68e-05,-1.87e-05
7111,6.86e-05,-1.99e-05
7112,7.06e-05,-2.11e-05
7113,7.25e-05,-2.25e-05
7114,7.46e-05,-2.4e-05
7115,7.68e-05,-2.57e-05
7116,7.92e-05,-2.75e-05
7117,8.17e-05,-2.95e-05
7118,8.42e-05,-3.17e-05
7119,8.7e-05,-3.42e-05
7120,8.98e-05,-3.71e-05
7121,9.28e-05,-4.02e-05
7122,9.6e-05,-4.37e-05
7123,9.92e-05,-4.78e-05
7124,0.0001027,-5.25e-05
7125,0.0001061,-5.76e-05
7126,0.0001095,-6.35e-05
7127,0.0001131,-7.04e-05
7128,0.0001164,-7.77e-05
7129,0.0001194,-8.62e-05
7130,0.0001219,-9.59e-05
7131,0.0001239,-0.0001071
7132,0.0001248,-0.00012
7133,0.0001243,-0.0001339
7134,0.0001217,-0.0001495
7135,0.0001165,-0.0001664
7136,0.0001082,-0.0001839
7137,9.57e-05,-0.0002012
7138,7.94e-05,-0.0002171
7139,5.88e-05,-0.0002306
7140,3.47e-05,-0.0002402
7141,8.4e-06,-0.0002447
7142,-1.84e-05,-0.0002434
7143,-4.4e-05,-0.0002365
7144,-6.67e-05,-0.0002249
7145,-8.54e-05,-0.0002098
7146,-0.0001001,-0.0001928
7147,-0.0001111,-0.0001734
7148,-0.0001176,-0.0001565
7149,-0.0001211,-0.0001401
7150,-0.0001223,-0.0001245
7151,-0.0001218,-0.0001113
7152,-0.0001201,-9.96e-05
7153,-0.0001176,-8.93e-05
7154,-0.0001146,-8.02e-05
7155,-0.0001112,-7.22e-05
7156,-0.0001078,-6.51e-05
7157,-0.0001043,-5.89e-05
7158,-0.0001007,-5.35e-05
7159,-9.72e-05,-4.88e-05
7160,-9.39e-05,-4.45e-05
7161,-9.06e-05,-4.08e-05
7162,-8.75e-05,-3.75e-05
7163,-8.45e-05,-3.46e-05
7164,-8.16e-05,-3.19e-05
7165,-7.9e-05,-2.95e-05
7166,-7.65e-05,-2.74e-05
7167,-7.41e-05,-2.55e-05
7168,-7.17e-05,-2.38e-05
7169,-6.95e-05,-2.23e-05
7170,-6.73e-05,-2.08e-05
7171,-6.53e-05,-1.95e-05
7172,-6.35e-05,-1.84e-05
7173,-6.17e-05,-1.73e-05
7174,-6e-05,-1.64e-05
7175,-5.84e-05,-1.55e-05
7176,-5.68e-05,-1.46e-05
7177,-5.52e-05,-1.38e-05
7178,-5.34e-05,-1.29e-05
7179,-5.17e-05,-1.2e-05
7180,-5.02e-05,-1.11e-05
7181,-4.94e-05,-1.05e-05
7182,-4.87e-05,-1e-05
7183,-4.8e-05,-9.7e-06
7184,-4.69e-05,-9.2e-06
7185,-4.59e-05,-8.8e-06
7186,-4.48e-05,-8.4e-06
7187,-4.39e-05,-8.1e-06
7188,-4.3e-05,-7.8e-06
7189,-4.21e-05,-7.4e-06
7190,-4.12e-05,-7.1e-06
7191,-4.03e-05,-6.9e-06
7192,-3.95e-05,-6.6e-06
7193,-3.88e-05,-6.3e-06
7194,-3.8e-05,-6.1e-06
7195,-3.73e-05,-5.9e-06
7196,-3.66e-05,-5.7e-06
7197,-3.59e-05,-5.4e-06
7198,-3.53e-05,-5.3e-06
7199,-3.47e-05,-5.1e-06
7200,-3.41e-05,-4.9e-06
7201,-3.35e-05,-4.8e-06
7202,-3.29e-05,-4.6e-06
7203,-3.24e-05,-4.5e-06
7204,-3.19e-05,-4.3e-06
7205,-3.13e-05,-4.1e-06
7206,-3.08e-05,-4e-06
7207,-3.04e-05,-3.9e-06
7208,-2.99e-05,-3.8e-06
7209,-2.94e-05,-3.7e-06
7210,-2.9e-05,-3.6e-06
7211,-2.85e-05,-3.5e-06
7212,-2.81e-05,-3.4e-06
7213,-2.77e-05,-3.3e-06
7214,-2.73e-05,-3.2e-06
7215,-2.69e-05,-3.1e-06
7216,-2.65e-05,-3.1e-06
7217,-2.61e-05,-2.9e-06
7218,-2.58e-05,-2.9e-06
7219,-2.54e-05,-2.8e-06
7220,-2.51e-05,-2.8e-06
7221,-2.47e-05,-2.7e-06
7222,-2.44e-05,-2.6e-06
7223,-2.41e-05,-2.5e-06
7224,-2.38e-05,-2.5e-06
7225,-2.35e-05,-2.4e-06
7226,-2.32e-05,-2.4e-06
7227,-2.29e-05,-2.3e-06
7228,-2.26e-05,-2.3e-06
7229,-2.23e-05,-2.3e-06
7230,-2.2e-05,-2.2e-06
7231,-2.18e-05,-2.1e-06
7232,-2.15e-05,-2.1e-06
7233,-2.13e-05,-2e-06
7234,-2.1e-05,-2e-06
7235,-2.07e-05,-2e-06
7236,-2.05e-05,-1.9e-06
7237,-2.03e-05,-1.9e-06
7238,-2.01e-05,-1.8e-06
7239,-1.98e-05,-1.8e-06
7240,-1.96e-05,-1.8e-06
7241,-1.94e-05,-1.8e-06
7242,-1.92e-05,-1.7e-06
7243,-1.9e-05,-1.7e-06
7244,-1.88e-05,-1.6e-06
7245,-1.86e-05,-1.6e-06
7246,-1.84e-05,-1.6e-06
7247,-1.82e-05,-1.6e-06
7248,-1.8e-05,-1.5e-06
7249,-1.79e-05,-1.5e-06
7250,-1.77e-05,-1.5e-06
7251,-1.75e-05,-1.5e-06
7252,-1.73e-05,-1.4e-06
7253,-1.71e-05,-1.4e-06
7254,-1.69e-05,-1.4e-06
7255,-1.68e-05,-1.4e-06
7256,-1.66e-05,-1.4e-06
7257,-1.64e-05,-1.4e-06
7258,-1.63e-05,-1.3e-06
7259,-1.62e-05,-1.3e-06
7260,-1.6e-05,-1.2e-06
7261,-1.58e-05,-1.2e-06
7262,-1.56e-05,-1.2e-06
7263,-1.55e-05,-1.2e-06
7264,-1.53e-05,-1.2e-06
7265,-1.52e-05,-1.2e-06
7266,-1.51e-05,-1.2e-06
7267,-1.5e-05,-1.1e-06
7268,-1.48e-05,-1.1e-06
7269,-1.47e-05,-1.1e-06
7270,-1.46e-05,-1.1e-06
7271,-1.45e-05,-1.1e-06
7272,-1.43e-05,-1.1e-06
7273,-1.42e-05,-1.1e-06
7274,-1.41e-05,-1e-06
7275,-1.39e-05,-1e-06
7276,-1.38e-05,-1e-06
7277,-1.37e-05,-1e-06
7278,-1.36e-05,-1e-06
7279,-1.35e-05,-1e-06
7280,-1.34e-05,-1e-06
7281,-1.33e-05,-1e-06
7282,-1.31e-05,-9e-07
7283,-1.3e-05,-9e-07
7284,-1.29e-05,-9e-07
7285,-1.28e-05,-9e-07
7286,-1.27e-05,-9e-07
7287,-1.26e-05,-9e-07
7288,-1.26e-05,-8e-07
7289,-1.25e-05,-8e-07
7290,-1.24e-05,-8e-07
7291,-1.22e-05,-8e-07
7292,-1.21e-05,-8e-07
7293,-1.2e-05,-8e-07
7294,-1.2e-05,-8e-07
7295,-1.18e-05,-8e-07
7296,-1.17e-05,-8e-07
7297,-1.17e-05,-8e-07
7298,-1.16e-05,-8e-07
7299,-1.15e-05,-8e-07
